2
4
6
6
6
7
8
8
9
11
12
12
12
12
12
12
13
14
15
18
18
22
22
22
23
27
27
28
28
28
30
32
32
32
33
34
36
37
37
38
38
38
39
40
41
42
43
44
44
45
45
49
49
49
49
50
53
55
57
58
59
59
59
61
62
63
63
68
70
70
72
73
73
76
76
79
80
81
83
83
86
88
90
92
92
93
97
97
99
99
99
99
101
103
105
106
107
109
109
109
110
110
110
111
111
112
113
114
115
116
116
119
119
120
120
121
121
121
122
122
124
126
126
128
129
129
130
131
132
132
133
135
135
136
136
138
139
140
141
141
142
143
143
143
144
145
146
146
147
148
149
149
149
150
151
153
153
154
155
156
157
159
160
160
160
161
161
162
163
164
165
165
165
166
168
168
174
174
175
175
177
180
183
183
183
184
185
186
189
190
191
192
192
194
194
195
196
198
199
199
199
200
201
201
202
203
204
205
205
206
207
208
209
210
210
213
213
213
213
218
218
219
219
220
222
222
224
224
227
229
230
231
231
231
231
232
233
233
235
235
236
237
237
238
243
245
247
248
249
249
250
251
251
252
252
254
254
254
254
256
256
257
257
259
262
262
262
263
263
265
265
266
266
269
269
269
269
269
269
270
272
277
277
278
280
284
284
285
285
286
286
287
287
288
289
290
291
291
297
297
302
303
304
305
306
308
308
309
310
310
311
311
312
312
313
313
315
317
317
317
319
319
323
324
326
327
327
328
329
329
329
330
330
330
331
331
332
332
332
334
334
335
337
338
338
338
340
342
343
343
343
349
349
349
351
351
351
354
354
354
355
356
356
356
356
358
358
359
361
361
361
362
363
363
363
364
364
365
365
365
366
366
367
367
369
370
370
372
372
373
373
373
373
374
374
375
377
379
380
381
382
383
387
389
390
390
391
391
391
391
391
394
397
397
400
400
401
402
402
403
404
406
407
409
410
414
415
415
416
416
417
418
420
421
422
423
424
424
425
426
427
428
429
430
430
430
431
432
434
434
434
435
435
435
435
436
437
437
438
439
440
444
444
445
446
448
449
450
450
452
452
453
453
455
455
458
458
458
459
462
463
464
464
464
466
468
469
471
472
473
473
476
476
481
482
482
482
483
483
483
484
484
484
484
484
484
485
485
485
486
487
488
488
488
488
489
490
490
491
492
493
495
495
497
498
499
499
501
502
502
502
502
506
506
508
509
510
510
511
512
512
512
513
513
514
514
514
516
517
518
519
522
525
526
526
528
529
529
529
530
530
531
533
533
536
537
537
537
539
541
541
545
547
548
549
549
549
551
553
556
557
557
558
559
560
561
561
563
565
565
568
569
569
570
571
571
572
573
576
576
578
579
579
581
582
583
587
591
592
594
596
596
596
596
597
598
599
603
604
605
606
608
608
610
611
615
616
618
618
618
619
620
620
620
624
624
625
628
630
630
632
632
632
633
633
633
634
636
638
639
640
641
642
643
643
644
645
645
646
646
646
646
648
649
651
652
652
652
653
654
654
655
655
655
655
656
656
657
657
658
658
658
659
660
660
661
662
663
664
665
666
666
667
667
668
673
673
673
673
675
676
677
677
677
679
679
683
683
683
686
686
687
688
688
692
693
695
696
698
698
699
699
700
701
701
701
701
702
702
703
707
707
707
709
709
709
711
712
712
712
713
714
716
716
717
720
720
720
723
724
725
727
728
728
730
731
731
732
733
733
734
736
737
738
740
740
741
741
742
745
746
747
753
753
753
754
754
757
757
757
758
758
758
761
761
762
763
763
766
766
768
769
770
772
772
773
776
777
778
780
781
782
782
782
785
785
785
786
787
789
791
792
794
794
795
795
796
797
801
801
803
803
803
804
804
804
806
807
808
808
809
810
810
810
811
811
812
812
812
815
815
815
818
819
819
819
820
820
821
822
822
822
823
823
824
825
827
828
830
830
832
833
837
838
840
841
841
841
842
842
843
843
843
844
844
847
849
850
851
851
853
853
856
857
857
858
859
860
860
860
862
863
863
864
867
868
868
870
873
875
878
878
879
881
881
881
882
882
883
883
884
884
884
885
886
888
889
892
892
893
893
895
895
895
897
897
899
899
900
901
902
903
903
906
907
907
908
910
912
913
914
915
916
917
919
919
922
922
922
923
925
926
927
929
929
930
931
932
932
933
934
935
935
936
936
937
939
939
940
941
941
942
943
943
944
944
944
944
945
945
946
947
947
947
951
952
952
954
954
954
956
957
958
959
962
963
963
965
965
965
966
966
967
967
968
970
975
977
978
979
980
981
981
982
982
984
986
986
988
989
989
990
992
992
992
992
995
998
999
999
999
1000
1000
1001
1002
1005
1007
1007
1008
1008
1009
1009
1012
1014
1015
1016
1016
1018
1018
1023
1028
1028
1028
1029
1029
1030
1031
1031
1032
1032
1033
1034
1035
1035
1035
1035
1036
1037
1038
1038
1038
1039
1041
1045
1046
1048
1049
1050
1050
1050
1052
1053
1056
1059
1060
1061
1063
1063
1063
1063
1064
1064
1065
1067
1068
1068
1068
1070
1073
1076
1079
1081
1081
1081
1081
1082
1086
1086
1086
1090
1091
1092
1092
1093
1094
1097
1099
1099
1100
1103
1105
1106
1106
1107
1107
1107
1107
1108
1109
1111
1113
1113
1114
1114
1115
1118
1118
1119
1121
1121
1121
1122
1123
1123
1123
1124
1127
1128
1128
1128
1129
1129
1129
1130
1132
1132
1133
1134
1134
1135
1135
1136
1138
1139
1140
1142
1143
1144
1145
1146
1148
1149
1151
1151
1152
1152
1153
1153
1153
1154
1154
1155
1155
1155
1157
1159
1159
1159
1159
1160
1160
1161
1164
1164
1167
1169
1169
1171
1171
1172
1172
1172
1173
1174
1174
1180
1180
1181
1182
1182
1182
1183
1187
1189
1189
1190
1190
1191
1193
1193
1195
1196
1196
1197
1198
1199
1199
1199
1200
1200
1202
1202
1203
1203
1204
1205
1206
1207
1207
1211
1211
1211
1215
1215
1216
1218
1218
1219
1222
1222
1222
1223
1224
1226
1226
1226
1226
1227
1231
1236
1237
1238
1238
1239
1239
1241
1241
1242
1243
1243
1245
1247
1247
1247
1247
1247
1248
1249
1249
1252
1257
1257
1261
1261
1261
1263
1264
1264
1267
1268
1270
1271
1273
1274
1274
1275
1276
1276
1280
1280
1285
1285
1286
1287
1288
1289
1289
1290
1290
1291
1292
1292
1292
1292
1293
1293
1297
1299
1299
1300
1301
1302
1302
1303
1304
1306
1306
1317
1317
1318
1321
1321
1322
1323
1326
1329
1329
1330
1331
1333
1335
1335
1336
1337
1337
1337
1338
1340
1340
1340
1340
1342
1342
1342
1343
1343
1344
1344
1344
1344
1345
1345
1346
1346
1347
1352
1352
1353
1353
1354
1361
1362
1363
1363
1366
1366
1366
1367
1367
1368
1368
1369
1369
1371
1372
1373
1375
1376
1376
1377
1378
1378
1378
1379
1379
1380
1382
1383
1386
1386
1391
1392
1393
1393
1393
1397
1397
1397
1397
1397
1399
1401
1401
1403
1403
1404
1405
1405
1408
1409
1410
1411
1412
1412
1412
1413
1414
1414
1415
1416
1417
1419
1420
1421
1421
1421
1423
1425
1426
1427
1428
1430
1431
1432
1433
1435
1435
1436
1437
1437
1438
1439
1441
1441
1441
1442
1442
1442
1443
1445
1445
1447
1450
1451
1452
1456
1456
1457
1458
1458
1460
1461
1462
1463
1463
1465
1468
1469
1470
1471
1472
1472
1473
1474
1475
1475
1477
1477
1482
1483
1483
1483
1484
1484
1486
1491
1493
1493
1493
1494
1498
1499
1499
1500
1500
1503
1504
1505
1506
1507
1508
1508
1509
1511
1514
1515
1516
1517
1517
1521
1522
1524
1525
1525
1526
1527
1528
1529
1529
1529
1533
1537
1538
1538
1538
1538
1539
1540
1541
1543
1546
1546
1546
1550
1550
1551
1552
1553
1555
1555
1555
1555
1555
1555
1557
1559
1562
1562
1562
1562
1564
1564
1564
1565
1565
1566
1566
1568
1569
1571
1572
1573
1574
1576
1577
1578
1578
1578
1579
1580
1581
1581
1581
1581
1583
1584
1586
1587
1588
1589
1590
1591
1591
1596
1596
1597
1599
1599
1601
1601
1602
1603
1604
1604
1605
1605
1607
1607
1608
1610
1611
1612
1614
1614
1618
1620
1620
1623
1624
1624
1624
1626
1627
1629
1630
1630
1630
1631
1631
1631
1632
1635
1636
1637
1638
1642
1643
1643
1644
1645
1647
1648
1649
1649
1653
1653
1653
1654
1655
1655
1655
1656
1657
1661
1662
1663
1664
1666
1668
1669
1670
1671
1671
1674
1675
1677
1677
1678
1680
1680
1681
1681
1682
1684
1685
1685
1685
1687
1688
1688
1689
1690
1690
1690
1695
1695
1697
1699
1700
1700
1701
1701
1702
1702
1704
1704
1704
1705
1706
1706
1707
1708
1709
1710
1713
1713
1715
1715
1716
1716
1717
1717
1718
1721
1721
1722
1722
1722
1722
1722
1723
1724
1725
1726
1726
1728
1728
1732
1733
1734
1735
1738
1738
1738
1739
1739
1741
1741
1743
1744
1744
1745
1745
1747
1747
1751
1754
1754
1755
1756
1757
1760
1760
1762
1766
1767
1767
1769
1769
1770
1771
1771
1772
1773
1774
1776
1777
1780
1781
1782
1782
1783
1783
1783
1785
1786
1786
1787
1788
1788
1790
1790
1791
1792
1794
1797
1797
1797
1799
1801
1801
1801
1802
1803
1803
1803
1805
1806
1809
1811
1811
1811
1811
1812
1812
1812
1813
1815
1816
1816
1817
1817
1818
1820
1822
1823
1824
1825
1826
1828
1828
1829
1829
1830
1831
1831
1832
1833
1834
1837
1838
1838
1838
1839
1840
1841
1842
1842
1843
1843
1844
1847
1848
1848
1849
1850
1850
1851
1851
1852
1852
1853
1853
1854
1854
1855
1855
1856
1857
1858
1859
1859
1860
1861
1862
1863
1863
1864
1864
1867
1869
1869
1870
1871
1873
1873
1875
1879
1881
1881
1881
1883
1883
1885
1886
1887
1887
1890
1891
1892
1892
1894
1894
1896
1897
1898
1898
1900
1900
1902
1902
1902
1902
1903
1904
1904
1906
1909
1910
1912
1913
1913
1913
1914
1914
1915
1915
1915
1918
1918
1920
1921
1921
1922
1923
1923
1924
1925
1925
1926
1926
1928
1929
1930
1930
1930
1930
1930
1932
1932
1933
1934
1938
1939
1940
1940
1941
1942
1944
1947
1948
1949
1949
1949
1956
1957
1958
1958
1959
1960
1961
1962
1964
1964
1966
1967
1967
1967
1967
1968
1968
1969
1971
1971
1972
1973
1975
1977
1977
1981
1981
1983
1984
1984
1985
1986
1990
1991
1991
1992
1993
1993
1995
1995
1996
1996
1997
1998
2000
2000
2001
2001
2002
2003
2005
2006
2007
2008
2008
2009
2009
2009
2010
2011
2012
2014
2014
2014
2015
2016
2016
2017
2017
2019
2019
2019
2020
2021
2022
2024
2025
2026
2030
2030
2031
2032
2034
2035
2036
2038
2039
2039
2040
2041
2041
2042
2042
2043
2044
2045
2046
2046
2047
2047
2047
2048
2050
2050
2050
2052
2052
2053
2054
2055
2058
2059
2059
2059
2059
2061
2062
2062
2062
2064
2065
2066
2067
2068
2069
2069
2070
2073
2075
2076
2078
2079
2079
2080
2081
2082
2083
2084
2084
2085
2085
2085
2085
2086
2088
2090
2090
2091
2092
2097
2097
2097
2101
2102
2102
2102
2103
2105
2108
2110
2112
2114
2115
2115
2116
2116
2116
2118
2119
2120
2120
2121
2122
2123
2125
2130
2131
2132
2136
2136
2138
2138
2142
2144
2144
2146
2148
2148
2149
2149
2151
2152
2154
2157
2157
2158
2164
2166
2166
2170
2170
2170
2170
2171
2172
2173
2174
2174
2175
2178
2178
2179
2180
2180
2180
2181
2181
2182
2184
2188
2188
2189
2190
2190
2193
2193
2193
2194
2194
2196
2196
2199
2199
2199
2201
2203
2205
2206
2209
2209
2212
2212
2212
2213
2213
2213
2214
2215
2215
2216
2217
2217
2218
2218
2218
2218
2219
2219
2224
2229
2229
2231
2233
2236
2236
2237
2237
2238
2239
2239
2239
2239
2240
2240
2241
2242
2243
2246
2249
2250
2250
2253
2254
2255
2258
2260
2261
2261
2261
2262
2263
2263
2265
2266
2267
2268
2268
2273
2274
2274
2274
2275
2276
2277
2278
2279
2280
2282
2283
2284
2285
2287
2289
2289
2289
2290
2291
2291
2292
2292
2292
2293
2293
2294
2294
2294
2294
2295
2295
2295
2297
2298
2298
2298
2300
2300
2301
2302
2303
2304
2308
2308
2308
2308
2309
2309
2309
2311
2311
2312
2312
2317
2317
2320
2324
2325
2327
2327
2329
2330
2330
2331
2334
2334
2334
2334
2335
2337
2337
2338
2341
2342
2343
2343
2343
2344
2346
2347
2350
2351
2352
2352
2356
2358
2359
2360
2362
2363
2363
2364
2365
2365
2367
2367
2369
2370
2371
2372
2372
2373
2374
2374
2374
2374
2375
2376
2376
2377
2377
2377
2378
2380
2381
2381
2382
2383
2383
2384
2385
2386
2386
2387
2387
2387
2388
2388
2389
2389
2389
2391
2392
2393
2394
2395
2395
2395
2396
2397
2397
2398
2399
2400
2401
2401
2401
2403
2403
2403
2406
2408
2409
2411
2412
2413
2414
2417
2417
2417
2418
2419
2420
2421
2422
2423
2423
2424
2425
2425
2425
2426
2426
2429
2430
2430
2431
2431
2434
2434
2434
2435
2436
2437
2438
2438
2439
2439
2439
2442
2442
2444
2445
2447
2447
2448
2448
2451
2451
2451
2451
2452
2452
2453
2454
2455
2456
2456
2456
2457
2458
2460
2461
2461
2461
2462
2462
2462
2464
2465
2466
2467
2469
2470
2472
2472
2473
2475
2475
2476
2476
2476
2477
2478
2479
2482
2484
2485
2485
2486
2487
2487
2487
2488
2488
2488
2489
2490
2491
2491
2491
2492
2493
2494
2494
2495
2495
2496
2498
2499
2499
2499
2501
2503
2504
2505
2505
2505
2506
2507
2510
2512
2512
2515
2516
2516
2516
2517
2518
2519
2521
2521
2523
2524
2525
2525
2525
2525
2526
2526
2527
2527
2528
2528
2528
2530
2530
2531
2532
2532
2533
2533
2534
2534
2534
2538
2538
2539
2540
2542
2544
2547
2548
2548
2548
2548
2550
2550
2550
2551
2551
2553
2553
2554
2554
2554
2554
2555
2555
2555
2555
2556
2559
2560
2562
2563
2565
2568
2568
2570
2571
2573
2573
2573
2575
2575
2577
2578
2579
2579
2583
2583
2585
2586
2588
2589
2589
2589
2590
2591
2595
2597
2597
2598
2598
2599
2599
2600
2601
2602
2603
2603
2604
2604
2605
2608
2608
2610
2610
2611
2611
2611
2611
2614
2616
2616
2616
2616
2618
2619
2619
2619
2621
2622
2622
2623
2623
2624
2624
2625
2625
2628
2628
2629
2630
2630
2630
2630
2630
2631
2632
2632
2632
2633
2636
2636
2638
2638
2638
2638
2640
2644
2644
2645
2647
2648
2648
2649
2650
2651
2651
2652
2652
2652
2653
2656
2656
2657
2658
2658
2659
2660
2661
2661
2661
2661
2661
2662
2664
2664
2666
2669
2670
2672
2673
2673
2674
2675
2676
2677
2677
2679
2679
2681
2681
2683
2684
2685
2689
2689
2689
2689
2690
2690
2690
2693
2695
2695
2696
2697
2698
2703
2703
2703
2703
2704
2705
2705
2707
2709
2711
2711
2714
2714
2715
2717
2720
2721
2722
2723
2724
2725
2726
2727
2728
2728
2729
2730
2730
2733
2733
2737
2740
2741
2742
2742
2743
2744
2746
2746
2746
2748
2749
2751
2752
2754
2754
2755
2759
2760
2760
2761
2763
2764
2765
2766
2767
2768
2769
2769
2769
2771
2771
2775
2777
2778
2779
2781
2783
2787
2787
2788
2789
2789
2790
2791
2794
2795
2795
2795
2796
2796
2797
2798
2799
2799
2799
2801
2801
2804
2805
2805
2805
2805
2805
2806
2808
2810
2810
2811
2814
2815
2815
2816
2817
2817
2817
2818
2818
2819
2819
2821
2822
2823
2823
2823
2827
2827
2827
2832
2832
2833
2833
2833
2835
2835
2836
2837
2840
2841
2841
2842
2842
2843
2844
2845
2845
2846
2847
2847
2847
2850
2851
2852
2852
2854
2855
2855
2858
2860
2860
2861
2861
2862
2862
2862
2862
2862
2864
2864
2864
2865
2865
2866
2867
2867
2868
2869
2869
2870
2871
2871
2873
2874
2874
2875
2876
2878
2880
2880
2882
2882
2883
2883
2885
2887
2892
2894
2894
2896
2898
2898
2899
2899
2901
2902
2903
2904
2905
2905
2906
2907
2908
2908
2908
2912
2912
2913
2913
2913
2916
2917
2918
2919
2919
2920
2921
2922
2922
2923
2924
2924
2927
2927
2927
2928
2929
2931
2934
2935
2935
2937
2937
2939
2940
2942
2942
2943
2943
2944
2945
2948
2948
2948
2949
2950
2950
2951
2953
2954
2954
2955
2955
2956
2957
2957
2958
2959
2960
2963
2968
2968
2969
2971
2976
2976
2976
2977
2978
2979
2984
2985
2986
2987
2987
2988
2989
2989
2989
2990
2990
2992
2997
2999
3002
3002
3003
3004
3006
3007
3007
3008
3009
3010
3011
3011
3012
3013
3013
3014
3014
3015
3017
3017
3017
3020
3021
3023
3023
3025
3025
3027
3028
3028
3028
3029
3031
3031
3031
3036
3036
3037
3038
3038
3038
3042
3043
3043
3044
3044
3047
3047
3051
3051
3053
3053
3054
3054
3055
3057
3059
3061
3061
3063
3063
3064
3064
3067
3067
3068
3069
3071
3073
3073
3074
3074
3075
3077
3081
3082
3083
3085
3085
3087
3087
3087
3089
3089
3090
3091
3091
3092
3097
3098
3099
3102
3103
3103
3104
3104
3104
3104
3107
3107
3109
3110
3112
3112
3115
3116
3116
3116
3118
3118
3119
3119
3122
3125
3127
3128
3128
3129
3131
3131
3132
3135
3135
3138
3141
3141
3142
3142
3142
3143
3144
3145
3146
3146
3146
3147
3149
3149
3150
3150
3152
3154
3155
3156
3158
3158
3158
3159
3159
3160
3161
3161
3161
3162
3163
3163
3164
3166
3167
3167
3167
3168
3169
3169
3171
3172
3172
3173
3176
3176
3178
3180
3181
3183
3183
3183
3185
3185
3189
3189
3190
3190
3192
3192
3194
3196
3197
3197
3198
3198
3199
3199
3200
3201
3202
3205
3206
3207
3207
3207
3208
3209
3211
3214
3214
3215
3216
3217
3218
3218
3219
3220
3220
3221
3221
3221
3223
3225
3225
3227
3227
3228
3229
3229
3231
3232
3232
3232
3234
3235
3235
3236
3237
3237
3240
3241
3241
3242
3242
3244
3244
3245
3247
3247
3247
3248
3253
3254
3255
3256
3259
3259
3259
3261
3262
3263
3263
3266
3266
3267
3268
3268
3268
3269
3269
3270
3275
3275
3275
3279
3281
3281
3283
3283
3285
3285
3286
3287
3287
3287
3287
3288
3288
3289
3289
3290
3290
3291
3294
3294
3296
3296
3298
3300
3303
3307
3307
3308
3308
3308
3308
3309
3309
3314
3317
3317
3318
3321
3321
3321
3323
3323
3324
3325
3325
3325
3325
3326
3327
3327
3328
3329
3329
3329
3332
3332
3332
3336
3337
3343
3344
3346
3346
3347
3347
3347
3349
3350
3351
3351
3351
3351
3352
3356
3357
3358
3358
3359
3360
3361
3364
3365
3365
3365
3367
3368
3369
3372
3373
3373
3374
3374
3374
3375
3379
3380
3381
3381
3381
3383
3384
3384
3387
3388
3389
3389
3390
3391
3392
3392
3393
3393
3394
3394
3394
3395
3399
3401
3402
3403
3405
3405
3408
3408
3408
3408
3409
3410
3411
3414
3415
3416
3418
3419
3419
3420
3421
3422
3422
3425
3426
3428
3430
3431
3434
3436
3438
3439
3439
3440
3440
3442
3443
3444
3445
3445
3446
3447
3447
3453
3455
3456
3457
3459
3460
3461
3463
3463
3464
3464
3464
3467
3467
3467
3470
3470
3471
3471
3471
3473
3474
3475
3475
3477
3479
3479
3480
3480
3482
3482
3482
3483
3485
3489
3489
3491
3493
3493
3496
3496
3497
3499
3499
3500
3501
3503
3504
3507
3508
3510
3511
3511
3512
3513
3513
3513
3514
3514
3516
3517
3517
3518
3522
3523
3523
3524
3525
3525
3527
3527
3528
3529
3529
3531
3532
3533
3534
3535
3535
3535
3535
3537
3537
3539
3539
3540
3540
3541
3543
3543
3545
3546
3546
3547
3547
3548
3549
3549
3550
3550
3551
3552
3553
3554
3555
3555
3557
3557
3557
3559
3560
3560
3561
3561
3562
3563
3564
3564
3564
3566
3567
3568
3568
3570
3571
3574
3576
3576
3577
3578
3579
3579
3580
3581
3582
3583
3584
3585
3585
3587
3587
3587
3587
3589
3589
3589
3591
3592
3594
3595
3596
3598
3599
3600
3600
3602
3602
3603
3604
3605
3606
3606
3607
3607
3610
3610
3611
3611
3611
3612
3613
3613
3614
3614
3615
3615
3615
3616
3617
3618
3618
3619
3621
3621
3621
3622
3622
3622
3625
3627
3627
3627
3629
3629
3629
3630
3631
3631
3632
3635
3635
3635
3636
3637
3640
3642
3643
3644
3645
3650
3652
3652
3653
3653
3655
3656
3657
3657
3657
3658
3658
3660
3660
3660
3661
3666
3667
3668
3670
3670
3670
3672
3673
3675
3678
3678
3679
3679
3680
3680
3680
3681
3686
3687
3687
3687
3689
3691
3692
3693
3695
3695
3697
3697
3700
3700
3701
3701
3702
3703
3703
3704
3706
3707
3708
3708
3709
3710
3712
3713
3713
3715
3718
3718
3719
3719
3720
3721
3722
3724
3726
3726
3727
3728
3728
3729
3730
3730
3731
3732
3732
3733
3733
3735
3736
3736
3736
3736
3737
3738
3741
3741
3742
3743
3743
3745
3748
3749
3749
3749
3749
3752
3753
3754
3754
3755
3756
3757
3757
3757
3759
3759
3759
3760
3760
3761
3761
3762
3762
3763
3764
3766
3766
3767
3767
3768
3769
3769
3770
3770
3773
3775
3775
3776
3777
3778
3779
3780
3782
3785
3786
3786
3788
3788
3789
3789
3790
3792
3793
3795
3796
3799
3800
3800
3803
3804
3805
3808
3808
3809
3810
3810
3810
3812
3812
3812
3812
3813
3814
3815
3817
3817
3818
3819
3819
3820
3824
3824
3825
3828
3830
3830
3831
3833
3835
3836
3836
3836
3838
3838
3842
3842
3847
3847
3853
3855
3856
3856
3856
3857
3858
3859
3864
3864
3865
3866
3867
3867
3868
3869
3870
3870
3870
3871
3872
3873
3876
3876
3878
3878
3879
3879
3880
3880
3881
3882
3884
3884
3885
3886
3888
3888
3890
3891
3892
3893
3893
3894
3895
3895
3895
3895
3896
3896
3897
3897
3898
3898
3899
3899
3899
3900
3901
3904
3907
3908
3909
3911
3912
3913
3914
3914
3915
3915
3917
3918
3919
3920
3920
3922
3922
3923
3924
3925
3926
3926
3926
3928
3928
3928
3929
3929
3931
3932
3932
3934
3935
3937
3940
3941
3941
3942
3942
3942
3942
3944
3944
3946
3946
3946
3946
3949
3949
3950
3953
3953
3954
3955
3955
3956
3956
3958
3960
3961
3962
3963
3964
3965
3965
3968
3969
3969
3970
3970
3971
3971
3972
3973
3974
3975
3977
3978
3979
3979
3983
3983
3986
3986
3990
3991
3992
3993
3994
3995
3996
3998
3999
3999
3999
4001
4001
4001
4002
4003
4004
4005
4005
4006
4007
4007
4007
4008
4008
4009
4014
4014
4016
4016
4016
4017
4017
4017
4018
4018
4019
4019
4019
4021
4021
4021
4022
4023
4026
4027
4028
4031
4034
4035
4036
4036
4037
4037
4038
4039
4039
4039
4040
4041
4042
4042
4043
4044
4045
4046
4046
4047
4049
4050
4052
4052
4052
4053
4054
4054
4055
4057
4057
4059
4059
4060
4061
4061
4061
4063
4063
4065
4072
4072
4073
4074
4075
4078
4078
4078
4079
4079
4080
4081
4081
4081
4082
4082
4083
4084
4085
4087
4088
4089
4090
4090
4090
4092
4094
4096
4096
4097
4097
4097
4100
4101
4101
4103
4104
4104
4105
4106
4109
4112
4112
4112
4113
4115
4115
4116
4118
4119
4120
4121
4122
4122
4125
4126
4128
4128
4128
4130
4130
4130
4131
4131
4133
4133
4134
4142
4143
4144
4144
4145
4147
4147
4147
4149
4149
4149
4152
4152
4153
4156
4157
4157
4157
4158
4158
4158
4159
4159
4160
4160
4160
4162
4163
4164
4165
4165
4167
4170
4173
4173
4173
4173
4174
4176
4177
4178
4178
4179
4180
4181
4182
4183
4183
4183
4184
4185
4187
4187
4187
4188
4188
4188
4189
4189
4190
4190
4192
4192
4194
4194
4194
4196
4196
4197
4198
4199
4201
4202
4202
4202
4205
4205
4205
4205
4206
4206
4208
4210
4210
4210
4211
4211
4212
4212
4215
4215
4219
4220
4220
4220
4220
4221
4223
4223
4224
4226
4226
4227
4228
4228
4229
4231
4233
4233
4234
4234
4234
4235
4235
4235
4236
4238
4238
4239
4240
4241
4242
4243
4245
4245
4246
4247
4247
4250
4250
4250
4251
4251
4252
4252
4255
4255
4256
4256
4256
4258
4260
4260
4262
4264
4265
4266
4268
4269
4269
4271
4272
4274
4274
4275
4276
4280
4280
4281
4281
4283
4283
4285
4287
4289
4289
4290
4291
4292
4293
4294
4295
4295
4296
4296
4297
4298
4299
4299
4301
4301
4301
4303
4303
4304
4305
4306
4307
4308
4308
4310
4312
4312
4313
4313
4313
4314
4314
4314
4314
4316
4318
4319
4319
4319
4320
4321
4322
4322
4323
4327
4328
4328
4330
4333
4334
4334
4335
4335
4335
4338
4338
4341
4341
4342
4343
4344
4348
4349
4355
4356
4358
4359
4359
4359
4360
4361
4361
4361
4362
4363
4364
4365
4365
4365
4366
4366
4367
4372
4372
4373
4374
4374
4374
4375
4376
4377
4377
4377
4378
4379
4382
4382
4382
4382
4383
4385
4387
4388
4388
4389
4389
4390
4391
4394
4395
4396
4397
4398
4398
4400
4402
4402
4403
4403
4403
4403
4405
4406
4406
4407
4407
4408
4410
4412
4413
4414
4415
4416
4416
4417
4418
4418
4418
4419
4420
4421
4422
4422
4422
4424
4425
4427
4429
4429
4430
4430
4432
4437
4439
4439
4440
4441
4441
4444
4446
4446
4449
4449
4449
4450
4450
4451
4451
4454
4455
4457
4458
4458
4458
4459
4459
4459
4463
4465
4466
4466
4466
4466
4470
4471
4471
4472
4472
4473
4476
4478
4478
4478
4478
4478
4480
4480
4481
4481
4482
4482
4484
4484
4484
4484
4484
4485
4485
4485
4485
4486
4486
4488
4489
4490
4491
4492
4493
4494
4496
4496
4496
4497
4498
4498
4499
4501
4503
4504
4504
4504
4504
4507
4508
4508
4508
4510
4512
4513
4513
4515
4515
4515
4516
4518
4518
4519
4519
4521
4522
4522
4522
4524
4525
4525
4526
4527
4527
4528
4528
4529
4529
4530
4530
4531
4531
4531
4531
4531
4532
4532
4532
4533
4535
4536
4537
4538
4540
4541
4542
4544
4545
4546
4548
4549
4550
4550
4551
4551
4551
4556
4558
4558
4559
4560
4561
4562
4563
4566
4567
4567
4567
4569
4569
4570
4571
4571
4571
4572
4573
4573
4573
4574
4575
4576
4576
4579
4581
4581
4581
4582
4583
4583
4583
4583
4585
4585
4585
4586
4587
4588
4589
4589
4591
4591
4592
4595
4596
4596
4597
4598
4599
4600
4601
4603
4604
4604
4605
4608
4608
4609
4611
4611
4612
4612
4612
4613
4613
4614
4614
4615
4616
4616
4618
4619
4620
4620
4620
4621
4621
4621
4621
4622
4622
4622
4624
4625
4625
4625
4626
4627
4628
4629
4629
4631
4631
4632
4632
4633
4634
4634
4634
4635
4635
4636
4636
4636
4637
4637
4638
4639
4641
4641
4643
4644
4647
4647
4648
4651
4651
4651
4651
4652
4652
4652
4654
4655
4655
4657
4657
4659
4660
4662
4662
4664
4665
4667
4669
4669
4669
4670
4670
4671
4671
4673
4674
4674
4675
4675
4676
4678
4680
4682
4682
4683
4684
4685
4690
4690
4692
4692
4693
4693
4694
4695
4697
4697
4698
4699
4701
4703
4703
4704
4707
4707
4709
4710
4710
4711
4716
4717
4717
4717
4719
4722
4724
4725
4727
4727
4728
4729
4729
4731
4731
4731
4733
4734
4735
4737
4737
4737
4737
4739
4739
4740
4740
4740
4742
4743
4743
4744
4744
4744
4744
4746
4746
4747
4748
4748
4749
4749
4750
4750
4751
4753
4753
4756
4756
4756
4757
4757
4757
4758
4758
4758
4759
4760
4761
4762
4763
4764
4765
4766
4766
4768
4769
4769
4771
4771
4772
4772
4775
4783
4783
4785
4786
4786
4786
4787
4787
4788
4788
4790
4794
4794
4795
4795
4797
4797
4800
4801
4801
4801
4802
4802
4803
4803
4803
4803
4803
4805
4809
4810
4810
4810
4812
4812
4814
4814
4815
4815
4817
4817
4821
4822
4823
4823
4824
4825
4825
4825
4827
4827
4827
4827
4827
4828
4830
4831
4831
4831
4833
4835
4835
4836
4836
4838
4838
4839
4839
4839
4841
4841
4843
4844
4846
4847
4848
4848
4849
4851
4854
4854
4854
4854
4855
4855
4855
4855
4856
4856
4857
4862
4863
4865
4866
4867
4867
4868
4869
4871
4875
4876
4876
4876
4877
4878
4878
4878
4879
4879
4879
4880
4880
4881
4882
4882
4882
4883
4884
4887
4887
4888
4889
4891
4891
4892
4892
4892
4892
4896
4896
4896
4899
4903
4904
4904
4905
4908
4908
4910
4910
4912
4912
4913
4913
4913
4913
4915
4915
4916
4918
4918
4920
4921
4923
4924
4925
4928
4928
4928
4929
4929
4930
4930
4931
4931
4932
4933
4934
4935
4938
4942
4942
4943
4945
4946
4946
4946
4949
4950
4951
4954
4956
4956
4957
4957
4957
4959
4959
4962
4962
4965
4966
4967
4968
4968
4968
4971
4975
4977
4980
4982
4983
4983
4984
4985
4985
4986
4986
4986
4987
4987
4990
4990
4994
4994
5001
5003
5004
5004
5005
5006
5007
5008
5010
5011
5011
5012
5013
5013
5013
5014
5014
5015
5016
5020
5021
5022
5023
5024
5027
5027
5028
5030
5031
5032
5035
5035
5036
5037
5039
5040
5041
5043
5044
5044
5044
5044
5044
5045
5047
5049
5050
5051
5051
5051
5051
5052
5052
5053
5055
5057
5058
5059
5060
5062
5062
5063
5063
5063
5063
5063
5064
5065
5066
5066
5069
5069
5069
5069
5070
5071
5074
5074
5075
5077
5077
5078
5079
5080
5081
5081
5082
5083
5083
5084
5085
5087
5088
5089
5089
5090
5091
5092
5092
5092
5092
5092
5092
5093
5093
5094
5094
5094
5097
5099
5102
5107
5107
5109
5109
5109
5110
5112
5116
5116
5118
5120
5121
5121
5122
5122
5124
5124
5124
5125
5125
5126
5127
5128
5128
5129
5130
5131
5133
5133
5133
5134
5136
5137
5137
5137
5138
5140
5141
5141
5142
5143
5144
5144
5144
5145
5146
5146
5148
5148
5149
5149
5150
5150
5151
5152
5152
5154
5154
5154
5154
5155
5158
5159
5160
5160
5161
5163
5163
5164
5164
5166
5166
5167
5167
5167
5168
5168
5169
5170
5170
5170
5172
5174
5175
5175
5176
5176
5176
5177
5178
5179
5180
5180
5180
5181
5182
5182
5183
5183
5183
5183
5185
5185
5186
5188
5190
5191
5191
5192
5194
5196
5196
5196
5200
5201
5202
5202
5202
5204
5204
5204
5206
5208
5210
5211
5212
5212
5213
5215
5216
5216
5217
5218
5219
5220
5221
5221
5223
5223
5225
5227
5231
5232
5234
5234
5234
5237
5237
5237
5237
5238
5240
5240
5243
5243
5243
5244
5244
5244
5246
5246
5246
5247
5247
5248
5249
5249
5250
5250
5251
5251
5251
5252
5253
5253
5253
5253
5254
5254
5255
5257
5257
5257
5258
5258
5259
5261
5261
5263
5263
5263
5264
5265
5268
5269
5269
5271
5271
5273
5274
5274
5274
5277
5278
5278
5279
5280
5281
5283
5283
5283
5283
5284
5286
5287
5291
5294
5295
5295
5301
5301
5304
5305
5306
5307
5308
5309
5309
5309
5309
5309
5310
5311
5312
5312
5313
5313
5318
5318
5319
5319
5320
5320
5322
5323
5323
5323
5324
5324
5325
5326
5326
5327
5327
5328
5329
5330
5331
5331
5332
5333
5335
5338
5338
5339
5339
5340
5340
5341
5342
5342
5344
5346
5346
5349
5351
5351
5351
5354
5354
5355
5355
5358
5358
5359
5361
5362
5362
5363
5367
5367
5369
5372
5374
5374
5376
5376
5377
5378
5379
5380
5380
5380
5383
5383
5384
5384
5386
5387
5389
5389
5391
5393
5396
5398
5398
5400
5401
5404
5407
5411
5412
5413
5413
5414
5414
5417
5420
5424
5425
5425
5425
5426
5426
5426
5426
5427
5428
5429
5429
5429
5430
5432
5432
5436
5436
5436
5436
5438
5438
5439
5439
5440
5441
5445
5445
5446
5447
5447
5447
5450
5451
5451
5452
5452
5457
5458
5466
5467
5467
5468
5468
5468
5469
5471
5472
5472
5473
5474
5475
5475
5478
5478
5480
5480
5481
5487
5487
5489
5489
5490
5491
5491
5491
5494
5496
5497
5497
5498
5498
5500
5502
5502
5506
5506
5508
5508
5509
5509
5509
5509
5510
5510
5510
5511
5512
5513
5515
5515
5515
5516
5517
5519
5521
5522
5522
5523
5525
5525
5525
5526
5527
5529
5529
5530
5530
5530
5531
5532
5534
5535
5535
5536
5538
5538
5538
5539
5541
5542
5543
5547
5547
5548
5548
5549
5550
5550
5551
5554
5555
5555
5560
5563
5564
5566
5566
5568
5568
5571
5571
5571
5571
5573
5574
5574
5574
5574
5576
5576
5577
5578
5580
5580
5584
5584
5585
5586
5586
5588
5588
5589
5589
5591
5593
5595
5597
5597
5599
5599
5599
5602
5602
5604
5605
5606
5609
5610
5611
5612
5612
5613
5615
5617
5617
5618
5619
5620
5620
5622
5623
5623
5624
5624
5624
5625
5627
5627
5632
5633
5634
5634
5638
5638
5641
5642
5644
5645
5647
5648
5649
5650
5653
5655
5656
5656
5658
5660
5661
5661
5661
5662
5662
5662
5663
5664
5665
5665
5666
5668
5669
5671
5671
5671
5672
5674
5674
5675
5675
5677
5680
5680
5681
5681
5682
5684
5685
5685
5686
5687
5688
5688
5690
5691
5692
5693
5693
5693
5695
5695
5696
5696
5697
5699
5699
5700
5703
5705
5706
5706
5708
5708
5708
5710
5710
5710
5711
5713
5715
5715
5717
5720
5721
5722
5722
5722
5724
5726
5727
5729
5729
5729
5733
5737
5737
5738
5738
5738
5738
5739
5741
5742
5743
5744
5744
5745
5745
5746
5746
5749
5751
5752
5752
5752
5753
5753
5755
5757
5757
5758
5760
5761
5761
5762
5762
5762
5763
5764
5765
5766
5768
5769
5769
5771
5772
5775
5775
5777
5777
5777
5777
5778
5779
5780
5783
5785
5786
5786
5786
5787
5787
5788
5790
5790
5792
5793
5797
5799
5800
5800
5806
5807
5808
5811
5812
5813
5813
5814
5814
5814
5815
5815
5816
5816
5816
5816
5817
5819
5820
5820
5821
5821
5821
5821
5822
5824
5825
5825
5826
5827
5827
5827
5828
5828
5830
5831
5831
5832
5833
5833
5834
5834
5836
5837
5837
5842
5845
5846
5846
5846
5847
5848
5848
5849
5849
5849
5851
5851
5853
5853
5853
5854
5855
5856
5857
5857
5858
5858
5859
5862
5864
5864
5865
5866
5866
5867
5867
5869
5871
5871
5872
5873
5873
5874
5874
5875
5878
5878
5879
5879
5882
5884
5885
5886
5886
5886
5887
5887
5890
5891
5893
5894
5895
5898
5899
5900
5901
5902
5902
5904
5905
5909
5909
5911
5911
5912
5914
5915
5916
5916
5917
5919
5920
5920
5923
5923
5923
5924
5926
5928
5929
5932
5932
5933
5934
5935
5936
5938
5945
5946
5946
5947
5947
5948
5950
5952
5953
5953
5956
5957
5957
5959
5959
5959
5960
5961
5962
5962
5962
5963
5963
5964
5964
5966
5968
5971
5972
5973
5976
5979
5979
5979
5980
5980
5981
5981
5982
5982
5982
5982
5983
5983
5984
5984
5985
5989
5990
5990
5991
5992
5992
5994
5996
5996
5997
5998
5999
6002
6003
6003
6004
6004
6007
6011
6015
6015
6019
6020
6020
6020
6021
6021
6021
6024
6024
6025
6025
6026
6026
6027
6027
6028
6028
6032
6032
6033
6033
6034
6035
6036
6036
6038
6039
6039
6039
6040
6040
6045
6046
6046
6047
6047
6048
6050
6050
6050
6050
6051
6052
6054
6055
6056
6056
6056
6056
6060
6060
6062
6063
6065
6066
6067
6069
6070
6070
6071
6071
6073
6075
6076
6078
6078
6080
6085
6086
6086
6086
6087
6087
6087
6089
6090
6094
6096
6098
6099
6099
6101
6101
6104
6104
6105
6107
6107
6109
6110
6112
6113
6113
6114
6115
6119
6120
6125
6125
6125
6130
6130
6131
6131
6134
6135
6136
6139
6139
6140
6140
6144
6144
6145
6145
6147
6148
6148
6150
6151
6152
6152
6152
6152
6153
6153
6153
6155
6157
6158
6160
6160
6162
6162
6163
6165
6170
6172
6174
6175
6175
6175
6177
6178
6179
6179
6182
6183
6185
6185
6185
6186
6189
6189
6190
6191
6192
6197
6197
6198
6200
6201
6203
6204
6205
6207
6208
6208
6208
6209
6211
6212
6212
6213
6213
6213
6215
6215
6219
6221
6223
6224
6226
6227
6228
6230
6231
6232
6234
6234
6234
6237
6237
6239
6239
6240
6241
6244
6244
6245
6245
6245
6247
6248
6249
6249
6250
6252
6253
6255
6256
6257
6259
6260
6261
6263
6264
6264
6267
6268
6270
6271
6272
6272
6272
6272
6273
6273
6275
6275
6275
6280
6281
6282
6285
6285
6285
6286
6288
6288
6289
6289
6290
6290
6290
6291
6293
6295
6297
6299
6300
6302
6302
6303
6307
6307
6309
6309
6309
6311
6312
6313
6316
6316
6318
6318
6318
6319
6319
6320
6321
6321
6321
6323
6323
6323
6324
6327
6329
6330
6330
6330
6331
6331
6333
6336
6338
6338
6340
6340
6341
6341
6341
6342
6342
6342
6342
6345
6346
6346
6347
6347
6348
6348
6348
6348
6349
6350
6352
6354
6354
6355
6356
6357
6357
6359
6359
6360
6360
6362
6362
6362
6363
6364
6365
6366
6366
6366
6367
6370
6370
6371
6372
6373
6375
6376
6379
6379
6381
6381
6383
6384
6384
6385
6385
6385
6387
6388
6388
6388
6389
6393
6395
6396
6398
6398
6398
6398
6400
6400
6402
6404
6404
6404
6405
6407
6407
6410
6411
6411
6413
6415
6415
6417
6417
6419
6420
6422
6423
6426
6427
6428
6429
6432
6433
6433
6435
6436
6437
6437
6440
6440
6440
6442
6442
6443
6443
6443
6446
6447
6448
6448
6448
6448
6449
6449
6449
6451
6451
6452
6452
6453
6453
6454
6455
6455
6455
6457
6458
6459
6460
6460
6462
6464
6465
6469
6471
6473
6473
6474
6474
6474
6475
6476
6477
6477
6478
6480
6481
6482
6482
6482
6482
6483
6483
6484
6485
6485
6486
6487
6488
6488
6488
6489
6489
6489
6490
6490
6493
6493
6493
6493
6496
6496
6496
6497
6498
6499
6499
6500
6501
6501
6502
6503
6504
6505
6506
6507
6509
6510
6511
6513
6517
6517
6517
6519
6519
6520
6521
6524
6524
6526
6526
6526
6527
6527
6530
6530
6534
6535
6536
6536
6537
6537
6539
6540
6540
6541
6542
6542
6543
6545
6546
6546
6547
6549
6552
6553
6555
6556
6557
6558
6559
6559
6560
6561
6563
6564
6565
6566
6572
6574
6575
6575
6576
6576
6579
6580
6583
6583
6585
6586
6586
6587
6587
6587
6587
6588
6588
6588
6588
6590
6591
6591
6592
6593
6593
6594
6594
6595
6595
6596
6600
6601
6601
6601
6602
6602
6603
6604
6604
6604
6604
6605
6606
6606
6607
6607
6608
6608
6610
6610
6611
6611
6611
6612
6612
6613
6613
6618
6619
6620
6622
6623
6623
6623
6624
6625
6630
6630
6632
6633
6633
6633
6634
6636
6636
6636
6637
6637
6639
6639
6640
6640
6642
6642
6643
6645
6645
6647
6648
6649
6651
6652
6652
6653
6654
6654
6655
6657
6658
6659
6659
6661
6662
6664
6668
6670
6670
6671
6671
6672
6673
6674
6674
6674
6676
6680
6680
6680
6681
6681
6682
6684
6686
6687
6688
6689
6689
6691
6695
6696
6697
6697
6697
6698
6698
6698
6698
6698
6700
6701
6702
6703
6705
6706
6708
6708
6710
6710
6712
6716
6716
6717
6718
6719
6720
6721
6722
6723
6723
6723
6725
6727
6732
6734
6734
6735
6735
6736
6737
6738
6739
6740
6742
6743
6746
6746
6747
6747
6748
6752
6752
6752
6752
6753
6757
6758
6758
6760
6760
6762
6766
6767
6768
6768
6768
6772
6772
6772
6772
6774
6776
6777
6778
6780
6780
6781
6785
6787
6787
6788
6788
6790
6792
6793
6793
6794
6794
6796
6796
6799
6800
6806
6806
6806
6807
6810
6810
6811
6812
6814
6816
6816
6816
6817
6818
6818
6818
6819
6820
6820
6822
6823
6823
6825
6826
6827
6827
6829
6829
6830
6830
6830
6831
6832
6832
6834
6835
6835
6836
6841
6843
6843
6843
6844
6845
6845
6846
6847
6847
6847
6848
6848
6848
6849
6850
6850
6851
6853
6854
6855
6856
6856
6857
6857
6858
6858
6858
6859
6859
6859
6860
6861
6861
6862
6863
6864
6865
6865
6865
6866
6872
6874
6875
6875
6879
6879
6881
6881
6881
6881
6882
6883
6883
6885
6885
6885
6886
6886
6887
6889
6889
6890
6891
6892
6893
6894
6897
6898
6898
6899
6899
6900
6901
6901
6902
6904
6905
6906
6908
6909
6910
6910
6910
6912
6912
6912
6912
6914
6914
6918
6919
6919
6921
6922
6923
6923
6924
6924
6925
6928
6930
6930
6931
6932
6934
6935
6935
6935
6936
6936
6937
6937
6939
6941
6942
6945
6946
6947
6948
6951
6952
6953
6955
6956
6957
6960
6960
6960
6961
6962
6964
6964
6965
6965
6966
6968
6969
6969
6970
6971
6974
6974
6974
6976
6977
6977
6978
6978
6979
6981
6982
6988
6989
6990
6990
6992
6992
6993
6994
6995
6995
6996
6997
6998
6998
6999
6999
7000
7001
7003
7006
7010
7012
7013
7013
7013
7014
7015
7017
7017
7018
7018
7019
7019
7020
7020
7021
7021
7022
7022
7023
7024
7024
7024
7025
7026
7028
7031
7033
7034
7034
7035
7035
7035
7036
7037
7038
7039
7040
7040
7040
7041
7042
7042
7043
7043
7043
7044
7044
7044
7045
7048
7048
7048
7051
7052
7054
7056
7057
7057
7059
7059
7060
7060
7060
7060
7060
7060
7061
7062
7062
7063
7064
7065
7066
7066
7068
7068
7071
7072
7072
7075
7076
7076
7077
7079
7079
7079
7081
7082
7082
7082
7083
7084
7085
7085
7087
7089
7091
7091
7092
7094
7094
7095
7096
7096
7096
7098
7098
7100
7102
7103
7103
7105
7106
7108
7110
7110
7112
7114
7115
7116
7116
7117
7117
7117
7118
7122
7130
7130
7130
7131
7133
7134
7135
7137
7138
7138
7139
7139
7142
7143
7145
7146
7146
7147
7147
7148
7148
7149
7150
7153
7154
7154
7155
7155
7156
7157
7159
7159
7161
7161
7162
7162
7163
7163
7164
7164
7164
7165
7165
7167
7168
7169
7171
7172
7172
7173
7174
7174
7175
7176
7177
7177
7179
7179
7180
7180
7180
7181
7186
7186
7188
7188
7189
7189
7191
7193
7194
7194
7194
7195
7195
7195
7196
7197
7197
7199
7199
7200
7202
7202
7202
7202
7203
7207
7210
7210
7212
7213
7213
7214
7214
7215
7215
7215
7215
7216
7217
7219
7221
7221
7223
7224
7226
7226
7228
7228
7229
7229
7230
7231
7231
7232
7234
7234
7234
7235
7235
7235
7235
7237
7237
7238
7239
7240
7241
7241
7241
7242
7243
7243
7244
7245
7246
7247
7248
7248
7249
7249
7250
7250
7251
7251
7252
7252
7253
7253
7255
7255
7255
7255
7260
7261
7261
7266
7266
7267
7267
7267
7267
7268
7270
7270
7272
7273
7273
7275
7276
7277
7278
7279
7282
7282
7283
7284
7285
7286
7288
7288
7289
7289
7290
7290
7291
7291
7292
7292
7292
7296
7296
7296
7298
7298
7298
7298
7299
7299
7301
7303
7303
7304
7304
7305
7306
7306
7307
7308
7309
7310
7310
7314
7315
7315
7316
7316
7318
7320
7321
7322
7322
7323
7323
7324
7324
7325
7326
7328
7329
7331
7331
7332
7333
7333
7333
7333
7334
7335
7335
7336
7337
7337
7337
7338
7340
7342
7343
7345
7346
7346
7347
7349
7349
7350
7350
7352
7352
7353
7353
7354
7355
7356
7357
7359
7360
7360
7365
7367
7367
7367
7368
7369
7369
7369
7369
7370
7374
7374
7376
7378
7378
7380
7380
7384
7387
7387
7388
7388
7391
7393
7395
7395
7396
7398
7400
7403
7403
7404
7404
7405
7406
7406
7409
7409
7415
7416
7418
7419
7420
7422
7422
7422
7424
7425
7425
7426
7427
7428
7428
7428
7430
7430
7430
7431
7431
7431
7432
7433
7433
7434
7436
7436
7437
7439
7439
7439
7440
7441
7441
7442
7444
7444
7446
7447
7450
7451
7451
7454
7457
7458
7459
7460
7461
7462
7462
7463
7463
7464
7464
7465
7467
7467
7468
7475
7478
7478
7479
7479
7481
7483
7483
7484
7486
7487
7487
7488
7489
7489
7490
7490
7491
7492
7492
7493
7493
7494
7495
7496
7496
7501
7503
7506
7507
7509
7511
7512
7513
7514
7515
7518
7518
7518
7519
7522
7522
7523
7523
7523
7523
7525
7530
7530
7530
7532
7533
7534
7535
7540
7540
7542
7543
7545
7547
7548
7551
7551
7551
7552
7552
7554
7559
7560
7561
7564
7564
7568
7568
7568
7570
7573
7574
7575
7575
7577
7577
7578
7579
7579
7582
7583
7584
7586
7587
7587
7588
7590
7590
7592
7593
7595
7596
7596
7596
7596
7599
7600
7600
7601
7602
7604
7606
7607
7607
7607
7608
7609
7612
7612
7612
7612
7613
7614
7614
7614
7614
7615
7615
7616
7617
7617
7619
7619
7620
7621
7623
7624
7625
7626
7626
7626
7627
7627
7628
7629
7629
7630
7630
7632
7633
7633
7633
7634
7637
7639
7640
7640
7641
7642
7643
7644
7645
7646
7649
7649
7651
7652
7652
7653
7654
7655
7655
7656
7659
7661
7663
7664
7668
7669
7669
7671
7671
7674
7675
7676
7678
7678
7679
7679
7681
7682
7682
7682
7683
7686
7686
7686
7686
7686
7686
7687
7687
7688
7689
7690
7690
7691
7692
7693
7695
7698
7699
7701
7701
7701
7702
7703
7703
7704
7704
7706
7706
7706
7708
7708
7708
7709
7710
7711
7711
7712
7713
7713
7713
7714
7715
7717
7718
7719
7719
7719
7719
7723
7724
7726
7727
7728
7728
7729
7731
7731
7732
7732
7734
7736
7736
7736
7737
7737
7737
7738
7740
7740
7742
7742
7742
7745
7745
7746
7749
7749
7750
7752
7754
7754
7755
7755
7757
7757
7758
7759
7759
7760
7761
7762
7763
7765
7765
7766
7768
7769
7769
7770
7772
7772
7772
7774
7774
7775
7776
7779
7779
7779
7780
7780
7781
7782
7782
7782
7783
7783
7783
7785
7787
7788
7788
7789
7789
7790
7792
7793
7793
7793
7794
7796
7797
7797
7797
7798
7798
7798
7800
7800
7801
7803
7803
7803
7804
7806
7808
7809
7809
7809
7810
7811
7811
7811
7811
7812
7814
7815
7815
7815
7816
7817
7818
7820
7821
7821
7822
7823
7824
7826
7826
7827
7828
7828
7828
7829
7830
7834
7834
7836
7837
7838
7839
7839
7839
7840
7841
7843
7843
7844
7845
7846
7846
7847
7847
7848
7849
7849
7852
7852
7853
7854
7855
7858
7858
7860
7860
7863
7865
7865
7867
7867
7869
7871
7871
7871
7873
7873
7874
7877
7877
7878
7879
7880
7881
7881
7881
7883
7883
7885
7885
7886
7887
7890
7891
7891
7892
7893
7893
7894
7896
7897
7899
7899
7900
7900
7901
7901
7901
7902
7902
7906
7908
7909
7910
7910
7910
7912
7912
7912
7912
7913
7914
7914
7914
7916
7917
7918
7919
7919
7919
7919
7919
7920
7921
7921
7926
7932
7936
7936
7936
7936
7937
7938
7941
7942
7942
7943
7944
7945
7945
7946
7947
7948
7950
7951
7955
7955
7955
7956
7957
7958
7958
7959
7959
7961
7962
7963
7963
7964
7965
7966
7966
7970
7970
7971
7971
7973
7973
7973
7975
7977
7977
7977
7977
7981
7984
7987
7989
7989
7990
7991
7995
7995
7995
7996
7996
7998
8000
8000
8001
8001
8003
8004
8004
8005
8005
8006
8007
8008
8009
8009
8010
8010
8012
8013
8014
8014
8015
8016
8018
8021
8021
8022
8023
8025
8028
8029
8030
8030
8031
8032
8033
8033
8034
8035
8036
8037
8037
8038
8041
8042
8043
8043
8044
8044
8045
8045
8046
8047
8047
8048
8049
8050
8051
8052
8053
8054
8055
8055
8056
8056
8057
8059
8060
8060
8062
8062
8063
8064
8065
8066
8066
8067
8069
8069
8069
8071
8073
8074
8074
8076
8077
8079
8079
8080
8080
8084
8086
8086
8089
8090
8091
8091
8093
8094
8095
8096
8097
8097
8098
8098
8099
8100
8100
8101
8102
8102
8102
8103
8104
8104
8105
8105
8105
8105
8105
8106
8107
8107
8108
8111
8117
8118
8120
8120
8124
8124
8125
8126
8126
8127
8133
8134
8135
8137
8138
8138
8138
8140
8141
8141
8143
8144
8145
8145
8147
8148
8151
8152
8152
8156
8159
8160
8160
8162
8163
8164
8165
8165
8165
8170
8171
8171
8173
8174
8175
8175
8177
8177
8177
8178
8178
8179
8180
8181
8181
8182
8183
8185
8185
8186
8186
8187
8187
8189
8190
8191
8192
8192
8194
8195
8195
8195
8196
8199
8200
8202
8203
8204
8205
8205
8206
8207
8208
8209
8210
8212
8212
8213
8214
8215
8216
8216
8216
8217
8218
8219
8220
8220
8222
8223
8223
8225
8226
8226
8227
8227
8228
8232
8235
8236
8236
8237
8238
8239
8240
8241
8242
8244
8244
8247
8247
8248
8249
8249
8250
8252
8254
8255
8258
8261
8261
8263
8265
8265
8266
8266
8267
8268
8269
8269
8269
8271
8273
8274
8276
8277
8277
8278
8279
8281
8282
8284
8285
8285
8285
8285
8286
8286
8288
8288
8288
8289
8290
8290
8290
8290
8290
8296
8297
8298
8298
8299
8300
8300
8302
8302
8303
8304
8304
8307
8308
8308
8308
8309
8310
8310
8311
8312
8315
8320
8323
8323
8323
8325
8326
8326
8326
8327
8328
8328
8329
8329
8330
8332
8333
8334
8335
8336
8337
8339
8340
8340
8342
8342
8344
8346
8347
8347
8348
8348
8349
8349
8351
8353
8353
8354
8355
8356
8360
8361
8362
8363
8365
8368
8368
8368
8369
8370
8373
8378
8379
8381
8381
8381
8381
8386
8386
8386
8388
8388
8389
8389
8391
8395
8396
8396
8397
8398
8403
8405
8406
8407
8408
8408
8410
8410
8411
8411
8412
8413
8417
8418
8422
8422
8423
8424
8424
8427
8427
8429
8429
8430
8430
8431
8433
8433
8434
8435
8437
8437
8440
8440
8442
8442
8443
8443
8445
8446
8446
8447
8448
8448
8449
8450
8451
8453
8457
8457
8458
8458
8459
8459
8459
8460
8460
8461
8463
8467
8469
8469
8471
8471
8472
8473
8473
8474
8475
8477
8479
8480
8481
8482
8482
8482
8482
8485
8485
8486
8488
8489
8489
8490
8490
8490
8491
8491
8493
8494
8495
8497
8497
8498
8498
8499
8499
8500
8503
8504
8504
8506
8508
8509
8510
8511
8511
8511
8512
8514
8514
8514
8515
8520
8520
8520
8520
8521
8521
8522
8522
8522
8524
8525
8525
8526
8527
8528
8528
8530
8533
8533
8534
8534
8535
8536
8536
8538
8539
8539
8539
8539
8539
8541
8542
8542
8542
8543
8543
8545
8546
8546
8547
8547
8549
8551
8551
8554
8555
8555
8556
8556
8558
8560
8560
8563
8565
8566
8567
8568
8568
8570
8570
8571
8572
8572
8574
8576
8577
8581
8582
8583
8584
8584
8585
8586
8589
8589
8591
8591
8592
8593
8593
8594
8594
8594
8599
8603
8604
8605
8606
8606
8606
8607
8607
8607
8608
8609
8609
8609
8611
8611
8612
8614
8614
8614
8615
8618
8619
8619
8620
8621
8621
8622
8622
8623
8623
8625
8625
8627
8628
8629
8629
8629
8632
8634
8635
8637
8638
8638
8640
8640
8641
8643
8644
8644
8644
8646
8647
8648
8649
8651
8653
8655
8656
8656
8656
8658
8658
8659
8659
8659
8659
8659
8661
8662
8664
8665
8667
8667
8668
8670
8670
8671
8673
8674
8674
8677
8679
8679
8680
8681
8682
8686
8686
8688
8688
8691
8693
8695
8695
8695
8697
8697
8698
8698
8699
8700
8703
8704
8704
8705
8705
8707
8708
8708
8708
8709
8710
8710
8711
8711
8711
8713
8713
8714
8715
8715
8715
8716
8716
8716
8718
8719
8720
8723
8723
8723
8724
8724
8725
8725
8725
8726
8728
8729
8729
8730
8730
8731
8731
8732
8735
8738
8738
8739
8740
8741
8742
8744
8744
8744
8749
8749
8750
8752
8752
8752
8754
8755
8755
8757
8757
8758
8760
8760
8762
8762
8763
8764
8764
8764
8764
8766
8766
8767
8768
8768
8769
8770
8774
8775
8775
8779
8780
8781
8783
8783
8785
8787
8789
8789
8790
8790
8790
8791
8793
8795
8796
8797
8797
8799
8801
8802
8802
8803
8804
8805
8806
8809
8811
8812
8813
8813
8814
8817
8818
8819
8820
8824
8825
8825
8827
8831
8831
8833
8835
8836
8837
8838
8839
8840
8841
8843
8844
8846
8848
8848
8848
8849
8849
8851
8852
8852
8853
8854
8856
8857
8857
8857
8857
8858
8858
8858
8859
8859
8860
8861
8862
8862
8864
8864
8864
8865
8866
8866
8868
8869
8871
8873
8874
8874
8875
8875
8875
8876
8876
8877
8880
8882
8884
8885
8887
8888
8889
8889
8894
8894
8895
8896
8898
8901
8903
8904
8905
8906
8906
8906
8906
8908
8909
8910
8910
8911
8914
8915
8915
8916
8918
8918
8919
8920
8922
8923
8924
8926
8926
8926
8926
8927
8928
8928
8929
8929
8930
8931
8932
8934
8934
8936
8936
8939
8939
8940
8941
8941
8942
8945
8946
8947
8949
8949
8950
8950
8952
8952
8955
8956
8957
8957
8959
8959
8960
8961
8962
8962
8963
8963
8963
8963
8964
8964
8967
8968
8968
8970
8971
8972
8974
8977
8978
8980
8980
8980
8981
8982
8984
8985
8986
8987
8988
8991
8993
8995
8996
9002
9003
9005
9005
9005
9006
9011
9015
9017
9017
9018
9019
9019
9021
9021
9021
9021
9022
9024
9024
9025
9026
9026
9027
9029
9031
9033
9034
9035
9038
9039
9039
9042
9043
9043
9044
9044
9046
9047
9049
9052
9053
9053
9058
9059
9059
9061
9062
9062
9064
9064
9066
9067
9068
9070
9070
9071
9071
9072
9074
9076
9076
9079
9080
9082
9083
9083
9084
9084
9087
9088
9089
9090
9090
9090
9094
9096
9097
9098
9099
9100
9100
9100
9100
9101
9102
9102
9103
9104
9104
9105
9105
9109
9110
9112
9113
9113
9115
9116
9117
9119
9119
9122
9125
9125
9125
9126
9127
9127
9129
9129
9129
9130
9134
9135
9136
9137
9139
9141
9143
9143
9144
9144
9145
9146
9148
9149
9149
9150
9151
9151
9151
9151
9151
9154
9154
9155
9155
9156
9156
9156
9157
9158
9158
9159
9160
9162
9162
9165
9166
9167
9171
9171
9172
9173
9175
9176
9177
9178
9183
9183
9183
9184
9185
9187
9187
9188
9189
9189
9190
9190
9191
9192
9192
9195
9195
9199
9201
9204
9204
9204
9205
9207
9208
9210
9211
9211
9213
9214
9214
9216
9217
9217
9218
9219
9219
9219
9220
9221
9221
9221
9222
9222
9222
9223
9223
9225
9227
9229
9230
9230
9233
9233
9234
9234
9235
9235
9236
9236
9237
9237
9238
9239
9240
9240
9242
9243
9244
9244
9246
9246
9246
9247
9249
9249
9250
9252
9252
9252
9252
9254
9254
9256
9256
9257
9258
9259
9260
9261
9264
9265
9265
9265
9267
9267
9268
9269
9270
9270
9271
9271
9272
9272
9273
9276
9276
9278
9280
9281
9281
9282
9282
9283
9285
9285
9286
9286
9286
9286
9287
9288
9288
9289
9289
9291
9291
9293
9294
9294
9295
9296
9297
9300
9301
9301
9302
9303
9304
9309
9309
9311
9312
9313
9315
9318
9321
9321
9322
9322
9323
9323
9324
9325
9326
9330
9332
9333
9334
9335
9335
9335
9337
9338
9338
9339
9340
9340
9343
9344
9345
9347
9348
9348
9348
9349
9350
9350
9351
9352
9355
9355
9355
9356
9356
9356
9360
9360
9360
9361
9362
9362
9363
9364
9367
9367
9369
9373
9373
9375
9375
9377
9379
9379
9380
9380
9383
9383
9388
9390
9396
9396
9403
9404
9407
9407
9409
9409
9410
9410
9412
9413
9413
9413
9414
9415
9416
9416
9417
9417
9417
9418
9419
9419
9423
9425
9426
9426
9426
9427
9428
9430
9432
9433
9434
9435
9436
9437
9438
9439
9440
9440
9441
9442
9442
9444
9444
9445
9445
9446
9448
9449
9449
9450
9450
9451
9451
9451
9452
9452
9453
9453
9454
9455
9456
9457
9457
9457
9459
9460
9460
9462
9464
9464
9465
9467
9467
9467
9469
9473
9473
9475
9476
9478
9479
9480
9480
9480
9480
9482
9483
9484
9484
9485
9488
9490
9490
9490
9491
9492
9492
9492
9493
9493
9493
9493
9493
9496
9497
9497
9498
9499
9499
9499
9502
9504
9504
9506
9507
9507
9508
9509
9509
9510
9511
9512
9513
9513
9513
9513
9515
9518
9519
9519
9519
9520
9521
9521
9522
9523
9524
9524
9525
9527
9529
9529
9531
9534
9535
9535
9536
9538
9540
9544
9544
9546
9546
9548
9548
9548
9548
9549
9550
9551
9552
9553
9553
9554
9555
9556
9557
9557
9559
9560
9566
9566
9567
9570
9570
9571
9572
9573
9575
9576
9576
9579
9581
9584
9585
9585
9587
9588
9588
9589
9591
9594
9594
9594
9596
9598
9599
9599
9600
9601
9602
9602
9602
9604
9606
9607
9607
9609
9610
9610
9611
9612
9614
9618
9618
9619
9619
9620
9620
9621
9621
9622
9624
9626
9626
9628
9628
9628
9629
9632
9632
9633
9634
9634
9636
9638
9639
9639
9640
9641
9642
9643
9643
9644
9648
9648
9649
9651
9652
9654
9657
9658
9661
9662
9663
9664
9664
9666
9668
9671
9671
9672
9674
9675
9676
9676
9677
9677
9677
9677
9678
9679
9679
9680
9680
9681
9682
9682
9682
9683
9683
9684
9685
9687
9688
9693
9693
9694
9694
9695
9696
9696
9696
9701
9702
9703
9704
9705
9705
9706
9708
9708
9709
9710
9710
9712
9713
9713
9713
9713
9713
9714
9715
9717
9717
9720
9722
9722
9723
9725
9726
9729
9729
9731
9732
9732
9733
9734
9735
9735
9739
9740
9743
9745
9745
9745
9747
9747
9747
9747
9748
9748
9750
9750
9751
9752
9752
9753
9754
9756
9756
9757
9759
9760
9760
9761
9762
9762
9763
9763
9763
9766
9767
9767
9770
9770
9770
9772
9773
9773
9773
9775
9775
9775
9775
9776
9779
9779
9780
9780
9780
9781
9784
9786
9790
9793
9794
9794
9795
9795
9796
9796
9797
9799
9801
9801
9801
9802
9803
9803
9804
9805
9806
9806
9807
9807
9809
9810
9811
9812
9814
9814
9815
9815
9816
9819
9819
9822
9823
9824
9825
9825
9825
9825
9827
9830
9831
9832
9833
9833
9835
9836
9839
9839
9840
9843
9844
9844
9845
9846
9846
9848
9849
9849
9852
9853
9853
9854
9854
9855
9855
9857
9859
9860
9860
9861
9862
9863
9864
9864
9865
9866
9868
9868
9868
9869
9869
9871
9872
9873
9874
9875
9876
9878
9878
9879
9881
9882
9884
9886
9886
9887
9890
9890
9891
9893
9893
9893
9894
9895
9897
9897
9898
9899
9899
9900
9903
9904
9906
9907
9907
9907
9908
9908
9909
9909
9909
9909
9909
9910
9910
9910
9911
9912
9913
9913
9916
9916
9917
9917
9918
9920
9921
9921
9922
9926
9929
9929
9932
9932
9933
9933
9933
9934
9934
9936
9937
9937
9937
9937
9939
9939
9941
9941
9941
9941
9943
9943
9947
9948
9948
9949
9949
9950
9950
9951
9951
9951
9951
9954
9955
9957
9957
9960
9962
9962
9963
9963
9964
9967
9969
9969
9970
9972
9972
9973
9974
9974
9975
9975
9978
9979
9980
9981
9982
9983
9985
9985
9985
9986
9989
9989
9990
9991
9991
9995
9996
9997
9998
9998
